<svg width="16" height="16" viewBox="0 0 16 16" fill="none" xmlns="http://www.w3.org/2000/svg">
<path d="M13.8041 3.13698C13.8041 3.65654 13.3826 4.07807 12.863 4.07807C12.3435 4.07807 11.9219 3.65654 11.9219 3.13698C11.9219 2.61742 12.3435 2.19588 12.863 2.19588C13.3826 2.19588 13.8041 2.61742 13.8041 3.13698ZM16 0.313698C16 0.137243 15.8432 0 15.6667 0C12.2552 0 10.3828 0.784245 7.93209 3.22521C7.37331 3.79378 6.79493 4.44078 6.20675 5.1368L2.49139 5.33286C2.39336 5.34267 2.29533 5.40148 2.23651 5.48971L0.0406252 9.25408C-0.0279962 9.37172 -0.00839005 9.52857 0.0896405 9.6364L0.717036 10.2638C0.775854 10.3226 0.864082 10.352 0.942506 10.352C0.971916 10.352 1.00132 10.352 1.03073 10.3422L3.73638 9.50896L6.49104 12.2636L5.65778 14.9693C5.62837 15.0771 5.65778 15.1947 5.7362 15.283L6.3636 15.9104C6.43222 15.9692 6.51064 15.9986 6.58907 15.9986C6.64789 15.9986 6.6969 15.9888 6.74592 15.9594L10.5103 13.7635C10.5985 13.7047 10.6573 13.6066 10.6671 13.5086L10.8632 9.79325C11.5592 9.20507 12.2062 8.62669 12.7748 8.06792C15.0981 5.73479 16 3.56831 16 0.313698Z" fill="#00C76C"/>
</svg>
